{
    "title": "John G",
    "description": "",
    "thumbnail": "https://yt3.ggpht.com/ytc/AKedOLRRR5-whG5RZOi3mfbHO-RdhLibF-XNuPK5wqou=s88-c-k-c0xffffffff-no-rj-mo",
    "subscribers": "39",
    "joined": "2018-09-02T14:30:52Z",
    "views": "4156",
    "url": "https://www.youtube.com/channel/UCrnMKEl3wDJEA6rNTOKxLBQ"
}